Something happened
{dt}: Something happened
1/1/0001 12:00:00 AM: Something happened
5/23/2019 11:38:25 AM: Something happened
2019-05-23 11:41:53: Something happened
2019-05-23 11:44:00: Something happened
